{
  "$schema": "http://json-schema.org/draft-07/schema#",
  "title": "Content Type Multimedia",
  "description": "Response format for /content when type is multimedia",
  "type": "array",
  "items": {
    "$ref": "#/definitions/multimedia"
  },
  "definitions": {
    "multimedia": {
      "type": "object",
      "additionalProperties": false,
      "required": ["content_type", "category", "title", "uri"],
      "properties": {
        "content_type": {
          "const": "multimedia"
        },
        "category": {
          "type": "string"
        },
        "title": {
          "type": "string"
        },
        "author": {
          "type": "string"
        },
        "description": {
          "type": "string"
        },
        "uri": {
          "type": "string"
        },
        "is_private": {
          "type": "boolean"
        },
        "duration_in_minutes": {
          "type": "number"
        }
      }
    }
  }
}