{
  "$schema": "http://json-schema.org/draft-07/schema#",
  "title": "Employee",
  "description": "An Employee Schema",
  "type": "object",
  "properties": {
    "FirstName": {
      "type": "string"
    },
    "LastName": {
      "type": "string"
    },
    "Age": {
      "type": "number"
    },
    "Address": {
      "type": "string"
    },
    "City": {
      "type": "string"
    },
    "State": {
      "type": "string"
    },
    "Country": {
      "type": "string"
    },
    "PostalCode": {
      "type": "string"
    },
    "Phone": {
      "type": "string"
    },
    "Email": {
      "type": "string"
    },
    "IsMarried": {
      "type": "boolean"
    }
  },
  "additionalProperties": false,
  "required": ["FirstName", "LastName", "Email"]
}